{"tracks": {"href": "https://api.spotify.com/v1/search?query=Happy&type=track&offset=0&limit=10", "items": [{"album": {"album_type": "album", "artists": [{"external_urls": {"spotify": "https://open.spotify.com/artist/6y8XlgIV8BLlIg1tT1R10i"}, "href": "https://api.spotify.com/v1/artists/6y8XlgIV8BLlIg1tT1R10i", "id": "6y8XlgIV8BLlIg1tT1R10i", "name": "Old Dominion", "type": "artist", "uri": "spotify:artist:6y8XlgIV8BLlIg1tT1R10i"}], "available_markets": ["AD", "AR", "AT", "AU", "BE", "BG", "BO", "BR", "CA", "CH", "CL", "CO", "CR", "CY", "CZ", "DE", "DK", "DO", "EC", "EE", "ES", "FI", "FR", "GB", "GR", "GT", "HK", "HN", "HU", "ID", "IE", "IS", "IT", "JP", "LI", "LT", "LU", "LV", "MC", "MT", "MX", "MY", "NI", "NL", "NO", "NZ", "PA", "PE", "PH", "PL", "PT", "PY", "SE", "SG", "SK", "SV", "TH", "TR", "TW", "US", "UY"], "external_urls": {"spotify": "https://open.spotify.com/album/66Y5XaoFSoa0A4P0u56s8V"}, "href": "https://api.spotify.com/v1/albums/66Y5XaoFSoa0A4P0u56s8V", "id": "66Y5XaoFSoa0A4P0u56s8V", "images": [{"height": 640, "url": "https://i.scdn.co/image/2587c8038a89b1d28f694c1df3adc44fce70b9c1", "width": 640}, {"height": 300, "url": "https://i.scdn.co/image/c1bbbd32500602b2a95dcfb95598baca9570813c", "width": 300}, {"height": 64, "url": "https://i.scdn.co/image/c31ae4f08f9f8cf7fd86ee22bcb149571e3aaf7b", "width": 64}], "name": "Happy Endings", "release_date": "2017-08-25", "release_date_precision": "day", "type": "album", "uri": "spotify:album:66Y5XaoFSoa0A4P0u56s8V"}, "artists": [{"external_urls": {"spotify": "https://open.spotify.com/artist/6y8XlgIV8BLlIg1tT1R10i"}, "href": "https://api.spotify.com/v1/artists/6y8XlgIV8BLlIg1tT1R10i", "id": "6y8XlgIV8BLlIg1tT1R10i", "name": "Old Dominion", "type": "artist", "uri": "spotify:artist:6y8XlgIV8BLlIg1tT1R10i"}], "available_markets": ["AD", "AR", "AT", "AU", "BE", "BG", "BO", "BR", "CA", "CH", "CL", "CO", "CR", "CY", "CZ", "DE", "DK", "DO", "EC", "EE", "ES", "FI", "FR", "GB", "GR", "GT", "HK", "HN", "HU", "ID", "IE", "IS", "IT", "JP", "LI", "LT", "LU", "LV", "MC", "MT", "MX", "MY", "NI", "NL", "NO", "NZ", "PA", "PE", "PH", "PL", "PT", "PY", "SE", "SG", "SK", "SV", "TH", "TR", "TW", "US", "UY"], "disc_number": 1, "duration_ms": 184080, "explicit": false, "external_ids": {"isrc": "USRN11700017"}, "external_urls": {"spotify": "https://open.spotify.com/track/2A69wys3S9uiPSmn6UZWJn"}, "href": "https://api.spotify.com/v1/tracks/2A69wys3S9uiPSmn6UZWJn", "id": "2A69wys3S9uiPSmn6UZWJn", "name": "Written in the Sand", "popularity": 80, "preview_url": "https://p.scdn.co/mp3-preview/359e57ee6223012c21e12eeb5ad310a72cfb8cd3?cid=0ba2ff8c64394b11b98626001a7d9439", "track_number": 6, "type": "track", "uri": "spotify:track:2A69wys3S9uiPSmn6UZWJn"}, {"album": {"album_type": "album", "artists": [{"external_urls": {"spotify": "https://open.spotify.com/artist/6x2LnllRG5uGarZMsD4iO8"}, "href": "https://api.spotify.com/v1/artists/6x2LnllRG5uGarZMsD4iO8", "id": "6x2LnllRG5uGarZMsD4iO8", "name": "Thomas Rhett", "type": "artist", "uri": "spotify:artist:6x2LnllRG5uGarZMsD4iO8"}], "available_markets": ["CA", "MX", "US"], "external_urls": {"spotify": "https://open.spotify.com/album/4ykbJPI8MPscFzROE8dqLy"}, "href": "https://api.spotify.com/v1/albums/4ykbJPI8MPscFzROE8dqLy", "id": "4ykbJPI8MPscFzROE8dqLy", "images": [{"height": 640, "url": "https://i.scdn.co/image/04ff24682bc24c49708307586bc30b3431aa6988", "width": 640}, {"height": 300, "url": "https://i.scdn.co/image/b19cc380033d32379b88e4fef1d0a8db4db73679", "width": 300}, {"height": 64, "url": "https://i.scdn.co/image/5421f8a730a006a60ce5c562e76462b43fd00984", "width": 64}], "name": "Tangled Up", "release_date": "2015-09-25", "release_date_precision": "day", "type": "album", "uri": "spotify:album:4ykbJPI8MPscFzROE8dqLy"}, "artists": [{"external_urls": {"spotify": "https://open.spotify.com/artist/6x2LnllRG5uGarZMsD4iO8"}, "href": "https://api.spotify.com/v1/artists/6x2LnllRG5uGarZMsD4iO8", "id": "6x2LnllRG5uGarZMsD4iO8", "name": "Thomas Rhett", "type": "artist", "uri": "spotify:artist:6x2LnllRG5uGarZMsD4iO8"}], "available_markets": ["CA", "MX", "US"], "disc_number": 1, "duration_ms": 227426, "explicit": false, "external_ids": {"isrc": "USLXJ1507199"}, "external_urls": {"spotify": "https://open.spotify.com/track/5kNe7PE09d6Kvw5pAsx23n"}, "href": "https://api.spotify.com/v1/tracks/5kNe7PE09d6Kvw5pAsx23n", "id": "5kNe7PE09d6Kvw5pAsx23n", "name": "Die A Happy Man", "popularity": 77, "preview_url": null, "track_number": 4, "type": "track", "uri": "spotify:track:5kNe7PE09d6Kvw5pAsx23n"}, {"album": {"album_type": "album", "artists": [{"external_urls": {"spotify": "https://open.spotify.com/artist/6y8XlgIV8BLlIg1tT1R10i"}, "href": "https://api.spotify.com/v1/artists/6y8XlgIV8BLlIg1tT1R10i", "id": "6y8XlgIV8BLlIg1tT1R10i", "name": "Old Dominion", "type": "artist", "uri": "spotify:artist:6y8XlgIV8BLlIg1tT1R10i"}], "available_markets": ["AD", "AR", "AT", "AU", "BE", "BG", "BO", "BR", "CA", "CH", "CL", "CO", "CR", "CY", "CZ", "DE", "DK", "DO", "EC", "EE", "ES", "FI", "FR", "GB", "GR", "GT", "HK", "HN", "HU", "ID", "IE", "IS", "IT", "JP", "LI", "LT", "LU", "LV", "MC", "MT", "MX", "MY", "NI", "NL", "NO", "NZ", "PA", "PE", "PH", "PL", "PT", "PY", "SE", "SG", "SK", "SV", "TH", "TR", "TW", "US", "UY"], "external_urls": {"spotify": "https://open.spotify.com/album/66Y5XaoFSoa0A4P0u56s8V"}, "href": "https://api.spotify.com/v1/albums/66Y5XaoFSoa0A4P0u56s8V", "id": "66Y5XaoFSoa0A4P0u56s8V", "images": [{"height": 640, "url": "https://i.scdn.co/image/2587c8038a89b1d28f694c1df3adc44fce70b9c1", "width": 640}, {"height": 300, "url": "https://i.scdn.co/image/c1bbbd32500602b2a95dcfb95598baca9570813c", "width": 300}, {"height": 64, "url": "https://i.scdn.co/image/c31ae4f08f9f8cf7fd86ee22bcb149571e3aaf7b", "width": 64}], "name": "Happy Endings", "release_date": "2017-08-25", "release_date_precision": "day", "type": "album", "uri": "spotify:album:66Y5XaoFSoa0A4P0u56s8V"}, "artists": [{"external_urls": {"spotify": "https://open.spotify.com/artist/6y8XlgIV8BLlIg1tT1R10i"}, "href": "https://api.spotify.com/v1/artists/6y8XlgIV8BLlIg1tT1R10i", "id": "6y8XlgIV8BLlIg1tT1R10i", "name": "Old Dominion", "type": "artist", "uri": "spotify:artist:6y8XlgIV8BLlIg1tT1R10i"}], "available_markets": ["AD", "AR", "AT", "AU", "BE", "BG", "BO", "BR", "CA", "CH", "CL", "CO", "CR", "CY", "CZ", "DE", "DK", "DO", "EC", "EE", "ES", "FI", "FR", "GB", "GR", "GT", "HK", "HN", "HU", "ID", "IE", "IS", "IT", "JP", "LI", "LT", "LU", "LV", "MC", "MT", "MX", "MY", "NI", "NL", "NO", "NZ", "PA", "PE", "PH", "PL", "PT", "PY", "SE", "SG", "SK", "SV", "TH", "TR", "TW", "US", "UY"], "disc_number": 1, "duration_ms": 176893, "explicit": false, "external_ids": {"isrc": "USRN11600945"}, "external_urls": {"spotify": "https://open.spotify.com/track/0OlS52TmtK2gPaEtdmr7DN"}, "href": "https://api.spotify.com/v1/tracks/0OlS52TmtK2gPaEtdmr7DN", "id": "0OlS52TmtK2gPaEtdmr7DN", "name": "No Such Thing as a Broken Heart", "popularity": 75, "preview_url": "https://p.scdn.co/mp3-preview/a4f06f6466519e35acb54d9a8e84a15379389174?cid=0ba2ff8c64394b11b98626001a7d9439", "track_number": 1, "type": "track", "uri": "spotify:track:0OlS52TmtK2gPaEtdmr7DN"}, {"album": {"album_type": "album", "artists": [{"external_urls": {"spotify": "https://open.spotify.com/artist/3kVUvbeRdcrqQ3oHk5hPdx"}, "href": "https://api.spotify.com/v1/artists/3kVUvbeRdcrqQ3oHk5hPdx", "id": "3kVUvbeRdcrqQ3oHk5hPdx", "name": "Grouplove", "type": "artist", "uri": "spotify:artist:3kVUvbeRdcrqQ3oHk5hPdx"}], "available_markets": ["AD", "AR", "AT", "AU", "BE", "BG", "BO", "BR", "CA", "CH", "CL", "CO", "CR", "CY", "CZ", "DE", "DK", "DO", "EC", "EE", "ES", "FI", "GB", "GR", "GT", "HK", "HN", "HU", "ID", "IE", "IS", "IT", "JP", "LT", "LU", "LV", "MC", "MT", "MX", "MY", "NI", "NL", "NO", "NZ", "PA", "PE", "PH", "PL", "PT", "PY", "SE", "SG", "SK", "SV", "TH", "TR", "TW", "US", "UY"], "external_urls": {"spotify": "https://open.spotify.com/album/3oylWMc9TTC6Nx4I6U3axc"}, "href": "https://api.spotify.com/v1/albums/3oylWMc9TTC6Nx4I6U3axc", "id": "3oylWMc9TTC6Nx4I6U3axc", "images": [{"height": 640, "url": "https://i.scdn.co/image/10f685e5a087afc3b37e44487d88247a29ce5edb", "width": 640}, {"height": 300, "url": "https://i.scdn.co/image/8c025b303929755ba88ae7d867a7d45af3dfe64a", "width": 300}, {"height": 64, "url": "https://i.scdn.co/image/c2568f80e90db03863b7e9477ab974aafdd34114", "width": 64}], "name": "Never Trust A Happy Song", "release_date": "2011-09-02", "release_date_precision": "day", "type": "album", "uri": "spotify:album:3oylWMc9TTC6Nx4I6U3axc"}, "artists": [{"external_urls": {"spotify": "https://open.spotify.com/artist/3kVUvbeRdcrqQ3oHk5hPdx"}, "href": "https://api.spotify.com/v1/artists/3kVUvbeRdcrqQ3oHk5hPdx", "id": "3kVUvbeRdcrqQ3oHk5hPdx", "name": "Grouplove", "type": "artist", "uri": "spotify:artist:3kVUvbeRdcrqQ3oHk5hPdx"}], "available_markets": ["AD", "AR", "AT", "AU", "BE", "BG", "BO", "BR", "CA", "CH", "CL", "CO", "CR", "CY", "CZ", "DE", "DK", "DO", "EC", "EE", "ES", "FI", "GB", "GR", "GT", "HK", "HN", "HU", "ID", "IE", "IS", "IT", "JP", "LT", "LU", "LV", "MC", "MT", "MX", "MY", "NI", "NL", "NO", "NZ", "PA", "PE", "PH", "PL", "PT", "PY", "SE", "SG", "SK", "SV", "TH", "TR", "TW", "US", "UY"], "disc_number": 1, "duration_ms": 218013, "explicit": false, "external_ids": {"isrc": "USAT21101334"}, "external_urls": {"spotify": "https://open.spotify.com/track/0GO8y8jQk1PkHzS31d699N"}, "href": "https://api.spotify.com/v1/tracks/0GO8y8jQk1PkHzS31d699N", "id": "0GO8y8jQk1PkHzS31d699N", "name": "Tongue Tied", "popularity": 78, "preview_url": "https://p.scdn.co/mp3-preview/2147e7bd8762aa4f7f1ce38ba02cfa618c530758?cid=0ba2ff8c64394b11b98626001a7d9439", "track_number": 2, "type": "track", "uri": "spotify:track:0GO8y8jQk1PkHzS31d699N"}, {"album": {"album_type": "album", "artists": [{"external_urls": {"spotify": "https://open.spotify.com/artist/2VIoWte1HPDbZ2WqHd2La7"}, "href": "https://api.spotify.com/v1/artists/2VIoWte1HPDbZ2WqHd2La7", "id": "2VIoWte1HPDbZ2WqHd2La7", "name": "The Turtles", "type": "artist", "uri": "spotify:artist:2VIoWte1HPDbZ2WqHd2La7"}], "available_markets": ["AD", "AR", "AT", "AU", "BE", "BG", "BO", "BR", "CA", "CH", "CL", "CO", "CR", "CY", "CZ", "DE", "DK", "DO", "EC", "EE", "ES", "FI", "FR", "GB", "GR", "GT", "HK", "HN", "HU", "ID", "IE", "IS", "IT", "JP", "LI", "LT", "LU", "LV", "MC", "MT", "MX", "MY", "NI", "NL", "NO", "NZ", "PA", "PE", "PH", "PL", "PT", "PY", "SE", "SG", "SK", "SV", "TH", "TR", "TW", "US", "UY"], "external_urls": {"spotify": "https://open.spotify.com/album/2pMxs38Y5A0mmHrcu3twvB"}, "href": "https://api.spotify.com/v1/albums/2pMxs38Y5A0mmHrcu3twvB", "id": "2pMxs38Y5A0mmHrcu3twvB", "images": [{"height": 640, "url": "https://i.scdn.co/image/8ae7fe5096842b06dce51eebb383057b73c971d4", "width": 640}, {"height": 300, "url": "https://i.scdn.co/image/08019229b53670b2788599e9adcf8d1e7f035711", "width": 300}, {"height": 64, "url": "https://i.scdn.co/image/cb8284a5108938ef74ea4fd352ada3ebe884ba00", "width": 64}], "name": "Happy Together", "release_date": "1967-04", "release_date_precision": "month", "type": "album", "uri": "spotify:album:2pMxs38Y5A0mmHrcu3twvB"}, "artists": [{"external_urls": {"spotify": "https://open.spotify.com/artist/2VIoWte1HPDbZ2WqHd2La7"}, "href": "https://api.spotify.com/v1/artists/2VIoWte1HPDbZ2WqHd2La7", "id": "2VIoWte1HPDbZ2WqHd2La7", "name": "The Turtles", "type": "artist", "uri": "spotify:artist:2VIoWte1HPDbZ2WqHd2La7"}], "available_markets": ["AD", "AR", "AT", "AU", "BE", "BG", "BO", "BR", "CA", "CH", "CL", "CO", "CR", "CY", "CZ", "DE", "DK", "DO", "EC", "EE", "ES", "FI", "FR", "GB", "GR", "GT", "HK", "HN", "HU", "ID", "IE", "IS", "IT", "JP", "LI", "LT", "LU", "LV", "MC", "MT", "MX", "MY", "NI", "NL", "NO", "NZ", "PA", "PE", "PH", "PL", "PT", "PY", "SE", "SG", "SK", "SV", "TH", "TR", "TW", "US", "UY"], "disc_number": 1, "duration_ms": 176293, "explicit": false, "external_ids": {"isrc": "USA560587940"}, "external_urls": {"spotify": "https://open.spotify.com/track/1JO1xLtVc8mWhIoE3YaCL0"}, "href": "https://api.spotify.com/v1/tracks/1JO1xLtVc8mWhIoE3YaCL0", "id": "1JO1xLtVc8mWhIoE3YaCL0", "name": "Happy Together", "popularity": 73, "preview_url": "https://p.scdn.co/mp3-preview/be70befd16aac0ed18e1bab29513f5d84188415c?cid=0ba2ff8c64394b11b98626001a7d9439", "track_number": 6, "type": "track", "uri": "spotify:track:1JO1xLtVc8mWhIoE3YaCL0"}, {"album": {"album_type": "album", "artists": [{"external_urls": {"spotify": "https://open.spotify.com/artist/382aq8Pij5V2nE2JMHMoxl"}, "href": "https://api.spotify.com/v1/artists/382aq8Pij5V2nE2JMHMoxl", "id": "382aq8Pij5V2nE2JMHMoxl", "name": "Hoodie Allen", "type": "artist", "uri": "spotify:artist:382aq8Pij5V2nE2JMHMoxl"}], "available_markets": ["AD", "AR", "AT", "AU", "BE", "BG", "BO", "BR", "CA", "CH", "CL", "CO", "CR", "CY", "CZ", "DE", "DK", "DO", "EC", "EE", "ES", "FI", "FR", "GB", "GR", "GT", "HK", "HN", "HU", "ID", "IE", "IS", "IT", "JP", "LI", "LT", "LU", "LV", "MC", "MT", "MX", "MY", "NI", "NL", "NO", "NZ", "PA", "PE", "PH", "PL", "PT", "PY", "SE", "SG", "SK", "SV", "TH", "TR", "TW", "US", "UY"], "external_urls": {"spotify": "https://open.spotify.com/album/79BJk3m9oRh03Cybtc0hxq"}, "href": "https://api.spotify.com/v1/albums/79BJk3m9oRh03Cybtc0hxq", "id": "79BJk3m9oRh03Cybtc0hxq", "images": [{"height": 640, "url": "https://i.scdn.co/image/90378cd5d5e42e3f0af68baca184a80c358f0eed", "width": 640}, {"height": 300, "url": "https://i.scdn.co/image/91366ff874d85449b8f176ac05872f2d25fdb598", "width": 300}, {"height": 64, "url": "https://i.scdn.co/image/96278c126b3ad640c45e5ff0f3a96cdbe07be659", "width": 64}], "name": "Happy Camper", "release_date": "2016-01-22", "release_date_precision": "day", "type": "album", "uri": "spotify:album:79BJk3m9oRh03Cybtc0hxq"}, "artists": [{"external_urls": {"spotify": "https://open.spotify.com/artist/382aq8Pij5V2nE2JMHMoxl"}, "href": "https://api.spotify.com/v1/artists/382aq8Pij5V2nE2JMHMoxl", "id": "382aq8Pij5V2nE2JMHMoxl", "name": "Hoodie Allen", "type": "artist", "uri": "spotify:artist:382aq8Pij5V2nE2JMHMoxl"}, {"external_urls": {"spotify": "https://open.spotify.com/artist/2cFrymmkijnjDg9SS92EPM"}, "href": "https://api.spotify.com/v1/artists/2cFrymmkijnjDg9SS92EPM", "id": "2cFrymmkijnjDg9SS92EPM", "name": "blackbear", "type": "artist", "uri": "spotify:artist:2cFrymmkijnjDg9SS92EPM"}], "available_markets": ["AD", "AR", "AT", "AU", "BE", "BG", "BO", "BR", "CA", "CH", "CL", "CO", "CR", "CY", "CZ", "DE", "DK", "DO", "EC", "EE", "ES", "FI", "FR", "GB", "GR", "GT", "HK", "HN", "HU", "ID", "IE", "IS", "IT", "JP", "LI", "LT", "LU", "LV", "MC", "MT", "MX", "MY", "NI", "NL", "NO", "NZ", "PA", "PE", "PH", "PL", "PT", "PY", "SE", "SG", "SK", "SV", "TH", "TR", "TW", "US", "UY"], "disc_number": 1, "duration_ms": 188039, "explicit": false, "external_ids": {"isrc": "TCACL1649582"}, "external_urls": {"spotify": "https://open.spotify.com/track/5UiT4e4DHwZrcVIXojU5um"}, "href": "https://api.spotify.com/v1/tracks/5UiT4e4DHwZrcVIXojU5um", "id": "5UiT4e4DHwZrcVIXojU5um", "name": "Surprise Party (feat. Blackbear)", "popularity": 73, "preview_url": "https://p.scdn.co/mp3-preview/ac0a9650612b4d7c4f0f35282851bf54e42db662?cid=0ba2ff8c64394b11b98626001a7d9439", "track_number": 6, "type": "track", "uri": "spotify:track:5UiT4e4DHwZrcVIXojU5um"}, {"album": {"album_type": "album", "artists": [{"external_urls": {"spotify": "https://open.spotify.com/artist/2Pfv2w8a20xzC7Dr7QXRqM"}, "href": "https://api.spotify.com/v1/artists/2Pfv2w8a20xzC7Dr7QXRqM", "id": "2Pfv2w8a20xzC7Dr7QXRqM", "name": "Mudvayne", "type": "artist", "uri": "spotify:artist:2Pfv2w8a20xzC7Dr7QXRqM"}], "available_markets": ["AD", "AR", "AT", "AU", "BE", "BG", "BO", "BR", "CA", "CH", "CL", "CO", "CR", "CY", "CZ", "DE", "DK", "DO", "EC", "EE", "ES", "FI", "FR", "GB", "GR", "GT", "HK", "HN", "HU", "ID", "IE", "IS", "IT", "JP", "LI", "LT", "LU", "LV", "MC", "MT", "MX", "MY", "NI", "NL", "NO", "NZ", "PA", "PE", "PH", "PL", "PT", "PY", "SE", "SG", "SK", "SV", "TH", "TR", "TW", "US", "UY"], "external_urls": {"spotify": "https://open.spotify.com/album/0dCRu5tVhx9fvbVZSxfjfP"}, "href": "https://api.spotify.com/v1/albums/0dCRu5tVhx9fvbVZSxfjfP", "id": "0dCRu5tVhx9fvbVZSxfjfP", "images": [{"height": 640, "url": "https://i.scdn.co/image/63e820da1dfe52ec8e38f0ffeca470dd45f8e33b", "width": 640}, {"height": 300, "url": "https://i.scdn.co/image/3d19c402b0b3fadb4496f2480fb4d8691816bfd6", "width": 300}, {"height": 64, "url": "https://i.scdn.co/image/1d7588568f51a3696003b7f808b4d90e305e3862", "width": 64}], "name": "Lost and Found", "release_date": "2005", "release_date_precision": "year", "type": "album", "uri": "spotify:album:0dCRu5tVhx9fvbVZSxfjfP"}, "artists": [{"external_urls": {"spotify": "https://open.spotify.com/artist/2Pfv2w8a20xzC7Dr7QXRqM"}, "href": "https://api.spotify.com/v1/artists/2Pfv2w8a20xzC7Dr7QXRqM", "id": "2Pfv2w8a20xzC7Dr7QXRqM", "name": "Mudvayne", "type": "artist", "uri": "spotify:artist:2Pfv2w8a20xzC7Dr7QXRqM"}], "available_markets": ["AD", "AR", "AT", "AU", "BE", "BG", "BO", "BR", "CA", "CH", "CL", "CO", "CR", "CY", "CZ", "DE", "DK", "DO", "EC", "EE", "ES", "FI", "FR", "GB", "GR", "GT", "HK", "HN", "HU", "ID", "IE", "IS", "IT", "JP", "LI", "LT", "LU", "LV", "MC", "MT", "MX", "MY", "NI", "NL", "NO", "NZ", "PA", "PE", "PH", "PL", "PT", "PY", "SE", "SG", "SK", "SV", "TH", "TR", "TW", "US", "UY"], "disc_number": 1, "duration_ms": 216426, "explicit": true, "external_ids": {"isrc": "USSM10500054"}, "external_urls": {"spotify": "https://open.spotify.com/track/0INUE1K7cEiE8VH63Rv5RJ"}, "href": "https://api.spotify.com/v1/tracks/0INUE1K7cEiE8VH63Rv5RJ", "id": "0INUE1K7cEiE8VH63Rv5RJ", "name": "Happy?", "popularity": 69, "preview_url": "https://p.scdn.co/mp3-preview/a4972554181a20b1c1b259666f1a5955d526d91e?cid=0ba2ff8c64394b11b98626001a7d9439", "track_number": 3, "type": "track", "uri": "spotify:track:0INUE1K7cEiE8VH63Rv5RJ"}, {"album": {"album_type": "compilation", "artists": [{"external_urls": {"spotify": "https://open.spotify.com/artist/0LyfQWJT6nXafLPZqxe9Of"}, "href": "https://api.spotify.com/v1/artists/0LyfQWJT6nXafLPZqxe9Of", "id": "0LyfQWJT6nXafLPZqxe9Of", "name": "Various Artists", "type": "artist", "uri": "spotify:artist:0LyfQWJT6nXafLPZqxe9Of"}], "available_markets": ["AD", "AR", "AT", "AU", "BE", "BG", "BO", "BR", "CA", "CH", "CL", "CO", "CR", "CY", "CZ", "DE", "DK", "DO", "EC", "EE", "ES", "FI", "FR", "GB", "GR", "GT", "HK", "HN", "HU", "ID", "IE", "IS", "IT", "JP", "LI", "LT", "LU", "LV", "MC", "MT", "MX", "MY", "NI", "NL", "NO", "NZ", "PA", "PE", "PH", "PL", "PT", "PY", "SE", "SG", "SK", "SV", "TH", "TR", "TW", "US", "UY"], "external_urls": {"spotify": "https://open.spotify.com/album/5l3zEmMrOhOzG8d8s83GOL"}, "href": "https://api.spotify.com/v1/albums/5l3zEmMrOhOzG8d8s83GOL", "id": "5l3zEmMrOhOzG8d8s83GOL", "images": [{"height": 640, "url": "https://i.scdn.co/image/d8a6239b6b6065b4d04d4f3fc97cbfc752cfd9e7", "width": 640}, {"height": 300, "url": "https://i.scdn.co/image/473a3dd985633cb0f5f9cf43b738edf8271fbd09", "width": 300}, {"height": 64, "url": "https://i.scdn.co/image/9e194b2cf18bc27fe678e84bc8232da62357979f", "width": 64}], "name": "Despicable Me 2 (Original Motion Picture Soundtrack)", "release_date": "2013-06-18", "release_date_precision": "day", "type": "album", "uri": "spotify:album:5l3zEmMrOhOzG8d8s83GOL"}, "artists": [{"external_urls": {"spotify": "https://open.spotify.com/artist/2RdwBSPQiwcmiDo9kixcl8"}, "href": "https://api.spotify.com/v1/artists/2RdwBSPQiwcmiDo9kixcl8", "id": "2RdwBSPQiwcmiDo9kixcl8", "name": "Pharrell Williams", "type": "artist", "uri": "spotify:artist:2RdwBSPQiwcmiDo9kixcl8"}], "available_markets": ["AD", "AR", "AT", "AU", "BE", "BG", "BO", "BR", "CA", "CH", "CL", "CO", "CR", "CY", "CZ", "DE", "DK", "DO", "EC", "EE", "ES", "FI", "FR", "GB", "GR", "GT", "HK", "HN", "HU", "ID", "IE", "IS", "IT", "JP", "LI", "LT", "LU", "LV", "MC", "MT", "MX", "MY", "NI", "NL", "NO", "NZ", "PA", "PE", "PH", "PL", "PT", "PY", "SE", "SG", "SK", "SV", "TH", "TR", "TW", "US", "UY"], "disc_number": 1, "duration_ms": 233305, "explicit": false, "external_ids": {"isrc": "USQ4E1300686"}, "external_urls": {"spotify": "https://open.spotify.com/track/6NPVjNh8Jhru9xOmyQigds"}, "href": "https://api.spotify.com/v1/tracks/6NPVjNh8Jhru9xOmyQigds", "id": "6NPVjNh8Jhru9xOmyQigds", "name": "Happy", "popularity": 75, "preview_url": "https://p.scdn.co/mp3-preview/609cf640a652b3ca4d22b1d604f0885b7a591af9?cid=0ba2ff8c64394b11b98626001a7d9439", "track_number": 4, "type": "track", "uri": "spotify:track:6NPVjNh8Jhru9xOmyQigds"}, {"album": {"album_type": "album", "artists": [{"external_urls": {"spotify": "https://open.spotify.com/artist/382aq8Pij5V2nE2JMHMoxl"}, "href": "https://api.spotify.com/v1/artists/382aq8Pij5V2nE2JMHMoxl", "id": "382aq8Pij5V2nE2JMHMoxl", "name": "Hoodie Allen", "type": "artist", "uri": "spotify:artist:382aq8Pij5V2nE2JMHMoxl"}], "available_markets": ["AD", "AR", "AT", "AU", "BE", "BG", "BO", "BR", "CA", "CH", "CL", "CO", "CR", "CY", "CZ", "DE", "DK", "DO", "EC", "EE", "ES", "FI", "FR", "GB", "GR", "GT", "HK", "HN", "HU", "ID", "IE", "IS", "IT", "JP", "LI", "LT", "LU", "LV", "MC", "MT", "MX", "MY", "NI", "NL", "NO", "NZ", "PA", "PE", "PH", "PL", "PT", "PY", "SE", "SG", "SK", "SV", "TH", "TR", "TW", "US", "UY"], "external_urls": {"spotify": "https://open.spotify.com/album/79BJk3m9oRh03Cybtc0hxq"}, "href": "https://api.spotify.com/v1/albums/79BJk3m9oRh03Cybtc0hxq", "id": "79BJk3m9oRh03Cybtc0hxq", "images": [{"height": 640, "url": "https://i.scdn.co/image/90378cd5d5e42e3f0af68baca184a80c358f0eed", "width": 640}, {"height": 300, "url": "https://i.scdn.co/image/91366ff874d85449b8f176ac05872f2d25fdb598", "width": 300}, {"height": 64, "url": "https://i.scdn.co/image/96278c126b3ad640c45e5ff0f3a96cdbe07be659", "width": 64}], "name": "Happy Camper", "release_date": "2016-01-22", "release_date_precision": "day", "type": "album", "uri": "spotify:album:79BJk3m9oRh03Cybtc0hxq"}, "artists": [{"external_urls": {"spotify": "https://open.spotify.com/artist/382aq8Pij5V2nE2JMHMoxl"}, "href": "https://api.spotify.com/v1/artists/382aq8Pij5V2nE2JMHMoxl", "id": "382aq8Pij5V2nE2JMHMoxl", "name": "Hoodie Allen", "type": "artist", "uri": "spotify:artist:382aq8Pij5V2nE2JMHMoxl"}, {"external_urls": {"spotify": "https://open.spotify.com/artist/2cFrymmkijnjDg9SS92EPM"}, "href": "https://api.spotify.com/v1/artists/2cFrymmkijnjDg9SS92EPM", "id": "2cFrymmkijnjDg9SS92EPM", "name": "blackbear", "type": "artist", "uri": "spotify:artist:2cFrymmkijnjDg9SS92EPM"}, {"external_urls": {"spotify": "https://open.spotify.com/artist/6gyKRQqExSKKBBuScJ0pwx"}, "href": "https://api.spotify.com/v1/artists/6gyKRQqExSKKBBuScJ0pwx", "id": "6gyKRQqExSKKBBuScJ0pwx", "name": "Kyle", "type": "artist", "uri": "spotify:artist:6gyKRQqExSKKBBuScJ0pwx"}], "available_markets": ["AD", "AR", "AT", "AU", "BE", "BG", "BO", "BR", "CA", "CH", "CL", "CO", "CR", "CY", "CZ", "DE", "DK", "DO", "EC", "EE", "ES", "FI", "FR", "GB", "GR", "GT", "HK", "HN", "HU", "ID", "IE", "IS", "IT", "JP", "LI", "LT", "LU", "LV", "MC", "MT", "MX", "MY", "NI", "NL", "NO", "NZ", "PA", "PE", "PH", "PL", "PT", "PY", "SE", "SG", "SK", "SV", "TH", "TR", "TW", "US", "UY"], "disc_number": 1, "duration_ms": 214413, "explicit": true, "external_ids": {"isrc": "TCACL1649584"}, "external_urls": {"spotify": "https://open.spotify.com/track/7HytU9V8vMCUayply0lYBq"}, "href": "https://api.spotify.com/v1/tracks/7HytU9V8vMCUayply0lYBq", "id": "7HytU9V8vMCUayply0lYBq", "name": "Champagne and Pools (feat. Blackbear & Kyle)", "popularity": 67, "preview_url": "https://p.scdn.co/mp3-preview/f18d94078048f81195ac08c5b880ef7551ac6e29?cid=0ba2ff8c64394b11b98626001a7d9439", "track_number": 8, "type": "track", "uri": "spotify:track:7HytU9V8vMCUayply0lYBq"}, {"album": {"album_type": "album", "artists": [{"external_urls": {"spotify": "https://open.spotify.com/artist/74XFHRwlV6OrjEM0A2NCMF"}, "href": "https://api.spotify.com/v1/artists/74XFHRwlV6OrjEM0A2NCMF", "id": "74XFHRwlV6OrjEM0A2NCMF", "name": "Paramore", "type": "artist", "uri": "spotify:artist:74XFHRwlV6OrjEM0A2NCMF"}], "available_markets": ["AD", "AR", "AT", "AU", "BE", "BG", "BO", "BR", "CA", "CH", "CL", "CO", "CR", "CY", "CZ", "DE", "DK", "DO", "EC", "EE", "ES", "FI", "FR", "GB", "GR", "GT", "HK", "HN", "HU", "ID", "IE", "IS", "IT", "JP", "LI", "LT", "LU", "LV", "MC", "MT", "MX", "MY", "NI", "NL", "NO", "NZ", "PA", "PE", "PH", "PL", "PT", "PY", "SE", "SG", "SK", "SV", "TH", "TR", "TW", "US", "UY"], "external_urls": {"spotify": "https://open.spotify.com/album/1c9Sx7XdXuMptGyfCB6hHs"}, "href": "https://api.spotify.com/v1/albums/1c9Sx7XdXuMptGyfCB6hHs", "id": "1c9Sx7XdXuMptGyfCB6hHs", "images": [{"height": 640, "url": "https://i.scdn.co/image/d8296568ae1b856050976111fa892d8db693efd5", "width": 640}, {"height": 300, "url": "https://i.scdn.co/image/e76db9f9a416786fb689717cbccb87260393b4c7", "width": 300}, {"height": 64, "url": "https://i.scdn.co/image/b7d78427b0ccc251f6d40fce7ec9f63384072d12", "width": 64}], "name": "After Laughter", "release_date": "2017-05-12", "release_date_precision": "day", "type": "album", "uri": "spotify:album:1c9Sx7XdXuMptGyfCB6hHs"}, "artists": [{"external_urls": {"spotify": "https://open.spotify.com/artist/74XFHRwlV6OrjEM0A2NCMF"}, "href": "https://api.spotify.com/v1/artists/74XFHRwlV6OrjEM0A2NCMF", "id": "74XFHRwlV6OrjEM0A2NCMF", "name": "Paramore", "type": "artist", "uri": "spotify:artist:74XFHRwlV6OrjEM0A2NCMF"}], "available_markets": ["AD", "AR", "AT", "AU", "BE", "BG", "BO", "BR", "CA", "CH", "CL", "CO", "CR", "CY", "CZ", "DE", "DK", "DO", "EC", "EE", "ES", "FI", "FR", "GB", "GR", "GT", "HK", "HN", "HU", "ID", "IE", "IS", "IT", "JP", "LI", "LT", "LU", "LV", "MC", "MT", "MX", "MY", "NI", "NL", "NO", "NZ", "PA", "PE", "PH", "PL", "PT", "PY", "SE", "SG", "SK", "SV", "TH", "TR", "TW", "US", "UY"], "disc_number": 1, "duration_ms": 235706, "explicit": false, "external_ids": {"isrc": "USAT21700953"}, "external_urls": {"spotify": "https://open.spotify.com/track/6t44iU80A0h8WQ7vc4OoRj"}, "href": "https://api.spotify.com/v1/tracks/6t44iU80A0h8WQ7vc4OoRj", "id": "6t44iU80A0h8WQ7vc4OoRj", "name": "Fake Happy", "popularity": 70, "preview_url": "https://p.scdn.co/mp3-preview/62dbd4df9d5a3bce321f79073954bcc9fbb6b2f7?cid=0ba2ff8c64394b11b98626001a7d9439", "track_number": 5, "type": "track", "uri": "spotify:track:6t44iU80A0h8WQ7vc4OoRj"}], "limit": 10, "next": "https://api.spotify.com/v1/search?query=Happy&type=track&offset=10&limit=10", "offset": 0, "previous": null, "total": 235455}}